Conversion Factor — conversion_factor • arkrvu
…
#>   <date>     <date>                   <iv<date>> <dbl>   <dbl>   <dbl>
#> 1 2023-01-01 2023-12-31 [2023-01-01, 2023-12-31)  34.9   -1.20 -0.0332
conversion_factor(make_date(2018:2025))
#> # A tibble: 7 × 6
#>   date_start date_end                    date_iv    cf chg_abs  chg_rel
#>   <date>     <date>                   <iv<date>> <dbl>   <dbl>    <dbl>
#> 1 2018-01-01 2018-12-31 [2018-01-01, 2018-12-31)  35.8 -0.129  -0.00360
#> 2 2019-01-01 2019-12-31 [2019-01-01, 2019-12-31)  35.9  0.0844  0.00236
#> 3 2020-01-01 2020-12-31 [2020-01-01, 2020-12-31)  36.0  0.111   0.00309
#> 4 2021-01-01 2021-12-31 [2021-01-01, 2021-12-31)  36.0  0.0395  0.00110
#> 5 2022-01-01 2022-12-31 [2022-01-01, 2022-12-31)  36.1  0.0505  0.00140
#> 6 2023-01-01 2023-12-31 [2023-01-01, 2023-12-31)  34.9 -1.20   -0.0332 
#> 7 2024-01-01 2024-03-08 [2024-01-01, 2024-03-08)  34.6 -0.287  -0.00822
conversion_factor()
#> # A tibble: 36 × 6
#>    date_start date_end                    date_iv    cf chg_abs chg_rel
#>  * <date>     <date>                   <iv<date>> <dbl>   <dbl>   <dbl>
#>  1 1992-01-01 1992-12-31 [1992-01-01, 1992-12-31)  31.0   NA    NA     
#>  2 1993-01-01 1993-12-31 [1993-01-01, 1993-12-31)  31.0    0     0     
#>  3 1994-01-01 1994-12-31 [1994-01-01, 1994-12-31)  31.0    0     0     
#>  4 1995-01-01 1995-12-31 [1995-01-01, 1995-12-31)  31.0    0     0     
#>  5 1996-01-01 1996-12-31 [1996-01-01, 1996-12-31)  31.0    0     0     
#>  6 1997-01-01 1997-12-31 [1997-01-01, 1997-12-31)  31.0    0     0     
#>  7 1998-01-01 1998-12-31 [1998-01-01, 1998-12-31)  36.7    5.69  0.183 
#>  8 1999-01-01 1999-12-31 [1999-01-01, 1999-12-31)  34.7   -1.96 -0.0533
#>  9 2000-01-01 2000-12-31 [2000-01-01, 2000-12-31)  36.6    1.88  0.0542
#> 10 2001-01-01 2001-12-31 [2001-01-01, 2001-12-31)  38.3    1.64  0.0449
#> # ℹ 26 more rows
…
