…
## Usage

``` r
download_links()
```

## Value

list of selected rvu source files

## Examples

``` r
download_links()
#> # A tibble: 107 × 4
#>       yr  year file    url                                                      
#>    <int> <int> <chr>   <chr>                                                    
#>  1    26  2026 RVU26A  https://www.cms.gov/medicare/payment/fee-schedules/physi…
#>  2    25  2025 RVU25A  https://www.cms.gov/medicare/payment/fee-schedules/physi…
#>  3    25  2025 RVU25B  https://www.cms.gov/medicare/payment/fee-schedules/physi…
#>  4    25  2025 RVU25C  https://www.cms.gov/medicare/payment/fee-schedules/physi…
#>  5    25  2025 RVU25D  https://www.cms.gov/medicare/payment/fee-schedules/physi…
#>  6    24  2024 RVU24A  https://www.cms.gov/medicare/payment/fee-schedules/physi…
#>  7    24  2024 RVU24B  https://www.cms.gov/medicare/payment/fee-schedules/physi…
#>  8    24  2024 RVU24AR https://www.cms.gov/medicare/payment/fee-schedules/physi…
#>  9    24  2024 RVU24C  https://www.cms.gov/medicare/payment/fee-schedules/physi…
#> 10    24  2024 RVU24D  https://www.cms.gov/medicare/payment/fee-schedules/physi…
#> # ℹ 97 more rows
```
