…
## Usage

``` r
get_link_table()
```

## Value

list of selected rvu source files

## Examples

``` r
get_link_table()
#> # A tibble: 103 × 4
#>     year file_html file_url link_url                                            
#>    <int> <chr>     <chr>    <chr>                                               
#>  1  2025 RVU25A    rvu25a   https://www.cms.gov/medicare/payment/fee-schedules/…
#>  2  2024 RVU24AR   rvu24ar  https://www.cms.gov/medicare/payment/fee-schedules/…
#>  3  2024 RVU24D    rvu24d   https://www.cms.gov/medicare/payment/fee-schedules/…
#>  4  2024 RVU24B    rvu24b   https://www.cms.gov/medicare/payment/fee-schedules/…
#>  5  2024 RVU24C    rvu24c   https://www.cms.gov/medicare/payment/fee-schedules/…
#>  6  2024 RVU24A    rvu24a   https://www.cms.gov/medicare/payment/fee-schedules/…
#>  7  2023 RVU23D    rvu23d   https://www.cms.gov/medicare/payment/fee-schedules/…
#>  8  2023 RVU23A    rvu23a   https://www.cms.gov/medicare/medicare-fee-service-p…
#>  9  2023 RVU23C    rvu23c   https://www.cms.gov/medicare/medicare-fee-service-p…
#> 10  2023 RVU23B    rvu23b   https://www.cms.gov/medicare/medicare-fee-service-p…
#> # ℹ 93 more rows
```
