Get RVU Files — get_rvu_files • rvu
…
      Source: R/get_rvu_files.R
      get_rvu_files.Rd

    Get RVU Files

    Usage

get_rvu_files()

    Examples

get_rvu_files()
#> $link_table
#> # A tibble: 101 × 4
#>     year file_html file_url link_url                                            
#>    <int> <chr>     <chr>    <chr>                                               
#>  1  2024 RVU24C    rvu24c   https://www.cms.gov/medicare/payment/fee-schedules/…
#>  2  2024 RVU24A    rvu24a   https://www.cms.gov/medicare/payment/fee-schedules/…
#>  3  2024 RVU24AR   rvu24ar  https://www.cms.gov/medicare/payment/fee-schedules/…
#>  4  2024 RVU24B    rvu24b   https://www.cms.gov/medicare/payment/fee-schedules/…
#>  5  2023 RVU23B    rvu23b   https://www.cms.gov/medicare/medicare-fee-service-p…
#>  6  2023 RVU23D    rvu23d   https://www.cms.gov/medicare/medicare-fee-service-p…
#>  7  2023 RVU23A    rvu23a   https://www.cms.gov/medicare/medicare-fee-service-p…
#>  8  2023 RVU23C    rvu23c   https://www.cms.gov/medicare/medicare-fee-service-p…
#>  9  2022 RVU22C    rvu22c   https://www.cms.gov/medicaremedicare-fee-service-pa…
#> 10  2022 RVU22B    rvu22b   https://www.cms.gov/medicaremedicare-fee-service-pa…
#> # ℹ 91 more rows
…
#> 11 RVU24B   24LOCCO.xlsx      2023-12-13 21:52:42
#> 12 RVU24B   ANES2024.xlsx     2024-03-15 18:21:40
#> 13 RVU24B   GPCI2024.xlsx     2023-12-12 20:20:12
#> 14 RVU24B   OPPSCAP_APR.xlsx  2024-03-15 18:09:18
#> 15 RVU24B   PPRRVU24_APR.xlsx 2024-03-15 18:57:16
#> 16 RVU24C   24LOCCO.xlsx      2023-12-13 22:52:42
#> 17 RVU24C   ANES2024.xlsx     2024-03-15 18:21:40
#> 18 RVU24C   GPCI2024.xlsx     2023-12-12 21:20:12
#> 19 RVU24C   OPPSCAP_JUL.xlsx  2024-05-28 17:57:32
#> 20 RVU24C   PPRRVU24_JUL.xlsx 2024-05-03 18:04:32
#> 
#> $files
#> $files$pprvu
#> $files$pprvu$rvu24a_jan
#> # A tibble: 18,499 × 31
#>    hcpcs mod   description           status_code not_used_for_medicar…¹ work_rvu
#>    <chr> <chr> <chr>                 <chr>       <chr>                     <dbl>
#>  1 A0021 NA    Outside state ambula… I           NA                            0
#>  2 A0080 NA    Noninterest escort i… I           NA                            0
#>  3 A0090 NA    Interest escort in n… I           NA                            0
#>  4 A0100 NA    Nonemergency transpo… I           NA                            0
#>  5 A0110 NA    Nonemergency transpo… I           NA                            0
#>  6 A0120 NA    Noner transport mini… I           NA                            0
#>  7 A0130 NA    Noner transport whee… I           NA                            0
#>  8 A0140 NA    Nonemergency transpo… I           NA                            0
#>  9 A0160 NA    Noner transport case… I           NA                            0
#> 10 A0170 NA    Transport parking fe… I           NA                            0
#> # ℹ 18,489 more rows
#> # ℹ abbreviated name: ¹​not_used_for_medicare_payment
#> # ℹ 25 more variables: non_fac_pe_rvu <dbl>, non_fac_indicator <chr>,
#> #   facility_pe_rvu <dbl>, facility_indicator <chr>, mp_rvu <dbl>,
#> #   non_facility_total <chr>, facility_total <chr>, pctc_ind <chr>,
#> #   glob_days <chr>, pre_op <dbl>, intra_op <dbl>, post_op <dbl>,
#> #   mult_proc <chr>, bilat_surg <dbl>, asst_surg <dbl>, co_surg <dbl>, …
#> 
#> $files$pprvu$rvu24ar_jan
#> # A tibble: 18,499 × 31
#>    hcpcs mod   description           status_code not_used_for_medicar…¹ work_rvu
#>    <chr> <chr> <chr>                 <chr>       <chr>                     <dbl>
#>  1 A0021 NA    Outside state ambula… I           NA                            0
#>  2 A0080 NA    Noninterest escort i… I           NA                            0
#>  3 A0090 NA    Interest escort in n… I           NA                            0
#>  4 A0100 NA    Nonemergency transpo… I           NA                            0
#>  5 A0110 NA    Nonemergency transpo… I           NA                            0
#>  6 A0120 NA    Noner transport mini… I           NA                            0
#>  7 A0130 NA    Noner transport whee… I           NA                            0
#>  8 A0140 NA    Nonemergency transpo… I           NA                            0
#>  9 A0160 NA    Noner transport case… I           NA                            0
#> 10 A0170 NA    Transport parking fe… I           NA                            0
#> # ℹ 18,489 more rows
#> # ℹ abbreviated name: ¹​not_used_for_medicare_payment
#> # ℹ 25 more variables: non_fac_pe_rvu <dbl>, non_fac_indicator <chr>,
#> #   facility_pe_rvu <dbl>, facility_indicator <chr>, mp_rvu <dbl>,
#> #   non_facility_total <chr>, facility_total <chr>, pctc_ind <chr>,
#> #   glob_days <chr>, pre_op <dbl>, intra_op <dbl>, post_op <dbl>,
#> #   mult_proc <chr>, bilat_surg <dbl>, asst_surg <dbl>, co_surg <dbl>, …
#> 
#> $files$pprvu$rvu24b_apr
#> # A tibble: 18,534 × 31
#>    hcpcs mod   description           status_code not_used_for_medicar…¹ work_rvu
#>    <chr> <chr> <chr>                 <chr>       <chr>                     <dbl>
#>  1 A0021 NA    Outside state ambula… I           NA                            0
#>  2 A0080 NA    Noninterest escort i… I           NA                            0
#>  3 A0090 NA    Interest escort in n… I           NA                            0
#>  4 A0100 NA    Nonemergency transpo… I           NA                            0
#>  5 A0110 NA    Nonemergency transpo… I           NA                            0
#>  6 A0120 NA    Noner transport mini… I           NA                            0
#>  7 A0130 NA    Noner transport whee… I           NA                            0
#>  8 A0140 NA    Nonemergency transpo… I           NA                            0
#>  9 A0160 NA    Noner transport case… I           NA                            0
#> 10 A0170 NA    Transport parking fe… I           NA                            0
#> # ℹ 18,524 more rows
#> # ℹ abbreviated name: ¹​not_used_for_medicare_payment
#> # ℹ 25 more variables: non_fac_pe_rvu <dbl>, non_fac_indicator <chr>,
#> #   facility_pe_rvu <dbl>, facility_indicator <chr>, mp_rvu <dbl>,
#> #   non_facility_total <chr>, facility_total <chr>, pctc_ind <chr>,
#> #   glob_days <chr>, pre_op <dbl>, intra_op <dbl>, post_op <dbl>,
#> #   mult_proc <chr>, bilat_surg <dbl>, asst_surg <dbl>, co_surg <dbl>, …
#> 
#> $files$pprvu$rvu24c_jul
#> # A tibble: 18,664 × 31
#>    hcpcs mod   description           status_code not_used_for_medicar…¹ work_rvu
#>    <chr> <chr> <chr>                 <chr>       <chr>                     <dbl>
#>  1 A0021 NA    Outside state ambula… I           NA                            0
#>  2 A0080 NA    Noninterest escort i… I           NA                            0
#>  3 A0090 NA    Interest escort in n… I           NA                            0
#>  4 A0100 NA    Nonemergency transpo… I           NA                            0
#>  5 A0110 NA    Nonemergency transpo… I           NA                            0
#>  6 A0120 NA    Noner transport mini… I           NA                            0
#>  7 A0130 NA    Noner transport whee… I           NA                            0
#>  8 A0140 NA    Nonemergency transpo… I           NA                            0
#>  9 A0160 NA    Noner transport case… I           NA                            0
#> 10 A0170 NA    Transport parking fe… I           NA                            0
#> # ℹ 18,654 more rows
#> # ℹ abbreviated name: ¹​not_used_for_medicare_payment
#> # ℹ 25 more variables: non_fac_pe_rvu <dbl>, non_fac_indicator <chr>,
#> #   facility_pe_rvu <dbl>, facility_indicator <chr>, mp_rvu <dbl>,
#> #   non_facility_total <chr>, facility_total <chr>, pctc_ind <chr>,
#> #   glob_days <chr>, pre_op <dbl>, intra_op <dbl>, post_op <dbl>,
#> #   mult_proc <chr>, bilat_surg <dbl>, asst_surg <dbl>, co_surg <dbl>, …
#> 
#> 
#> $files$oppscap
#> $files$oppscap$rvu24a_jan
#> # A tibble: 17,710 × 7
#>    hcpcs mod   procstat carrier locality facility_price non_facility_price
#>    <chr> <chr> <chr>    <chr>   <chr>             <dbl>              <dbl>
#>  1 0633T TC    C        01112   05                 148.               148.
#>  2 0633T TC    C        01112   09                 150.               150.
#>  3 0633T TC    C        01112   17                 124.               124.
#>  4 0633T TC    C        01112   18                 125.               125.
#>  5 0633T TC    C        01112   51                 137.               137.
#>  6 0633T TC    C        01112   52                 148.               148.
#>  7 0633T TC    C        01112   53                 137.               137.
#>  8 0633T TC    C        01112   54                 114.               114.
#>  9 0633T TC    C        01112   55                 114.               114.
#> 10 0633T TC    C        01112   56                 114.               114.
#> # ℹ 17,700 more rows
#> 
#> $files$oppscap$rvu24ar_jan
#> # A tibble: 17,710 × 7
#>    hcpcs mod   procstat carrier locality facility_price non_facility_price
#>    <chr> <chr> <chr>    <chr>   <chr>             <dbl>              <dbl>
#>  1 0633T TC    C        01112   05                 151.               151.
#>  2 0633T TC    C        01112   09                 153.               153.
#>  3 0633T TC    C        01112   17                 126.               126.
#>  4 0633T TC    C        01112   18                 127.               127.
#>  5 0633T TC    C        01112   51                 139.               139.
#>  6 0633T TC    C        01112   52                 151.               151.
#>  7 0633T TC    C        01112   53                 139.               139.
#>  8 0633T TC    C        01112   54                 116.               116.
#>  9 0633T TC    C        01112   55                 116.               116.
#> 10 0633T TC    C        01112   56                 116.               116.
#> # ℹ 17,700 more rows
#> 
#> $files$oppscap$rvu24b_apr
#> # A tibble: 17,710 × 7
#>    hcpcs mod   procstat carrier locality facility_price non_facility_price
#>    <chr> <chr> <chr>    <chr>   <chr>             <dbl>              <dbl>
#>  1 0633T TC    C        01112   05                 151.               151.
#>  2 0633T TC    C        01112   09                 153.               153.
#>  3 0633T TC    C        01112   17                 126.               126.
#>  4 0633T TC    C        01112   18                 127.               127.
#>  5 0633T TC    C        01112   51                 139.               139.
#>  6 0633T TC    C        01112   52                 151.               151.
#>  7 0633T TC    C        01112   53                 139.               139.
#>  8 0633T TC    C        01112   54                 116.               116.
#>  9 0633T TC    C        01112   55                 116.               116.
#> 10 0633T TC    C        01112   56                 116.               116.
#> # ℹ 17,700 more rows
#> 
#> $files$oppscap$rvu24c_jul
#> # A tibble: 17,710 × 7
#>    hcpcs mod   procstat carrier locality facility_price non_facility_price
#>    <chr> <chr> <chr>    <chr>   <chr>             <dbl>              <dbl>
#>  1 0633T TC    C        01112   05                 148.               148.
#>  2 0633T TC    C        01112   09                 150.               150.
#>  3 0633T TC    C        01112   17                 124.               124.
#>  4 0633T TC    C        01112   18                 125.               125.
#>  5 0633T TC    C        01112   51                 137.               137.
#>  6 0633T TC    C        01112   52                 148.               148.
#>  7 0633T TC    C        01112   53                 137.               137.
#>  8 0633T TC    C        01112   54                 114.               114.
#>  9 0633T TC    C        01112   55                 114.               114.
#> 10 0633T TC    C        01112   56                 114.               114.
#> # ℹ 17,700 more rows
#> 
#> 
#> $files$gpci
#> $files$gpci$rvu24a
#> # A tibble: 109 × 8
#>    mac   state locality_number locality_name  gpci_work gpci_pe gpci_mp gpci_gaf
#>    <chr> <chr> <chr>           <chr>              <dbl>   <dbl>   <dbl>    <dbl>
#>  1 10112 AL    00              ALABAMA             1      0.869   0.575    0.815
#>  2 02102 AK    01              ALASKA              1.5    1.08    0.592    1.06 
#>  3 03102 AZ    00              ARIZONA             1      0.975   0.854    0.943
#>  4 07102 AR    13              ARKANSAS            1      0.86    0.518    0.793
#>  5 01112 CA    54              BAKERSFIELD         1.02   1.09    0.662    0.924
#>  6 01112 CA    55              CHICO               1.01   1.09    0.56     0.889
#>  7 01182 CA    71              EL CENTRO           1.01   1.09    0.57     0.892
#>  8 01112 CA    56              FRESNO              1.01   1.09    0.56     0.889
#>  9 01112 CA    57              HANFORD-CORCO…      1.01   1.09    0.56     0.889
#> 10 01182 CA    18              LOS ANGELES-L…      1.04   1.19    0.69     0.975
#> # ℹ 99 more rows
#> 
#> $files$gpci$rvu24ar
#> # A tibble: 109 × 8
#>    mac   state locality_number locality_name  gpci_work gpci_pe gpci_mp gpci_gaf
#>    <chr> <chr> <chr>           <chr>              <dbl>   <dbl>   <dbl>    <dbl>
#>  1 10112 AL    00              ALABAMA             1      0.869   0.575    0.815
#>  2 02102 AK    01              ALASKA              1.5    1.08    0.592    1.06 
#>  3 03102 AZ    00              ARIZONA             1      0.975   0.854    0.943
#>  4 07102 AR    13              ARKANSAS            1      0.86    0.518    0.793
#>  5 01112 CA    54              BAKERSFIELD         1.02   1.09    0.662    0.924
#>  6 01112 CA    55              CHICO               1.01   1.09    0.56     0.889
#>  7 01182 CA    71              EL CENTRO           1.01   1.09    0.57     0.892
#>  8 01112 CA    56              FRESNO              1.01   1.09    0.56     0.889
#>  9 01112 CA    57              HANFORD-CORCO…      1.01   1.09    0.56     0.889
#> 10 01182 CA    18              LOS ANGELES-L…      1.04   1.19    0.69     0.975
#> # ℹ 99 more rows
#> 
#> $files$gpci$rvu24b
#> # A tibble: 109 × 8
#>    mac   state locality_number locality_name  gpci_work gpci_pe gpci_mp gpci_gaf
#>    <chr> <chr> <chr>           <chr>              <dbl>   <dbl>   <dbl>    <dbl>
#>  1 10112 AL    00              ALABAMA             1      0.869   0.575    0.815
#>  2 02102 AK    01              ALASKA              1.5    1.08    0.592    1.06 
#>  3 03102 AZ    00              ARIZONA             1      0.975   0.854    0.943
#>  4 07102 AR    13              ARKANSAS            1      0.86    0.518    0.793
#>  5 01112 CA    54              BAKERSFIELD         1.02   1.09    0.662    0.924
#>  6 01112 CA    55              CHICO               1.01   1.09    0.56     0.889
#>  7 01182 CA    71              EL CENTRO           1.01   1.09    0.57     0.892
#>  8 01112 CA    56              FRESNO              1.01   1.09    0.56     0.889
#>  9 01112 CA    57              HANFORD-CORCO…      1.01   1.09    0.56     0.889
#> 10 01182 CA    18              LOS ANGELES-L…      1.04   1.19    0.69     0.975
#> # ℹ 99 more rows
#> 
#> $files$gpci$rvu24c
#> # A tibble: 109 × 8
#>    mac   state locality_number locality_name  gpci_work gpci_pe gpci_mp gpci_gaf
#>    <chr> <chr> <chr>           <chr>              <dbl>   <dbl>   <dbl>    <dbl>
#>  1 10112 AL    00              ALABAMA             1      0.869   0.575    0.815
#>  2 02102 AK    01              ALASKA              1.5    1.08    0.592    1.06 
#>  3 03102 AZ    00              ARIZONA             1      0.975   0.854    0.943
#>  4 07102 AR    13              ARKANSAS            1      0.86    0.518    0.793
#>  5 01112 CA    54              BAKERSFIELD         1.02   1.09    0.662    0.924
#>  6 01112 CA    55              CHICO               1.01   1.09    0.56     0.889
#>  7 01182 CA    71              EL CENTRO           1.01   1.09    0.57     0.892
#>  8 01112 CA    56              FRESNO              1.01   1.09    0.56     0.889
#>  9 01112 CA    57              HANFORD-CORCO…      1.01   1.09    0.56     0.889
#> 10 01182 CA    18              LOS ANGELES-L…      1.04   1.19    0.69     0.975
#> # ℹ 99 more rows
#> 
#> 
#> $files$locco
#> $files$locco$rvu24a
#> # A tibble: 111 × 6
#>    mac   locality_number state      fee_schedule_area         counties state_abb
#>    <chr> <chr>           <chr>      <chr>                     <chr>    <chr>    
#>  1 10112 00              ALABAMA    STATEWIDE                 ALL COU… AL       
#>  2 02102 01              ALASKA     STATEWIDE                 ALL COU… AK       
#>  3 03102 00              ARIZONA    STATEWIDE                 ALL COU… AZ       
#>  4 07102 13              ARKANSAS   STATEWIDE                 ALL COU… AR       
#>  5 01182 18              CALIFORNIA LOS ANGELES-LONG BEACH-A… LOS ANG… CA       
#>  6 01112 52              CALIFORNIA SAN FRANCISCO-OAKLAND-BE… MARIN    CA       
#>  7 01112 05              CALIFORNIA SAN FRANCISCO-OAKLAND-BE… SAN FRA… CA       
#>  8 01112 09              CALIFORNIA SAN JOSE-SUNNYVALE-SANTA… SANTA C… CA       
#>  9 01112 51              CALIFORNIA NAPA                      NAPA     CA       
#> 10 01112 53              CALIFORNIA VALLEJO                   SOLANO   CA       
#> # ℹ 101 more rows
#> 
#> $files$locco$rvu24ar
#> # A tibble: 111 × 6
#>    mac   locality_number state      fee_schedule_area         counties state_abb
#>    <chr> <chr>           <chr>      <chr>                     <chr>    <chr>    
#>  1 10112 00              ALABAMA    STATEWIDE                 ALL COU… AL       
#>  2 02102 01              ALASKA     STATEWIDE                 ALL COU… AK       
#>  3 03102 00              ARIZONA    STATEWIDE                 ALL COU… AZ       
#>  4 07102 13              ARKANSAS   STATEWIDE                 ALL COU… AR       
#>  5 01182 18              CALIFORNIA LOS ANGELES-LONG BEACH-A… LOS ANG… CA       
#>  6 01112 52              CALIFORNIA SAN FRANCISCO-OAKLAND-BE… MARIN    CA       
#>  7 01112 05              CALIFORNIA SAN FRANCISCO-OAKLAND-BE… SAN FRA… CA       
#>  8 01112 09              CALIFORNIA SAN JOSE-SUNNYVALE-SANTA… SANTA C… CA       
#>  9 01112 51              CALIFORNIA NAPA                      NAPA     CA       
#> 10 01112 53              CALIFORNIA VALLEJO                   SOLANO   CA       
#> # ℹ 101 more rows
#> 
#> $files$locco$rvu24b
#> # A tibble: 111 × 6
#>    mac   locality_number state      fee_schedule_area         counties state_abb
#>    <chr> <chr>           <chr>      <chr>                     <chr>    <chr>    
#>  1 10112 00              ALABAMA    STATEWIDE                 ALL COU… AL       
#>  2 02102 01              ALASKA     STATEWIDE                 ALL COU… AK       
#>  3 03102 00              ARIZONA    STATEWIDE                 ALL COU… AZ       
#>  4 07102 13              ARKANSAS   STATEWIDE                 ALL COU… AR       
#>  5 01182 18              CALIFORNIA LOS ANGELES-LONG BEACH-A… LOS ANG… CA       
#>  6 01112 52              CALIFORNIA SAN FRANCISCO-OAKLAND-BE… MARIN    CA       
#>  7 01112 05              CALIFORNIA SAN FRANCISCO-OAKLAND-BE… SAN FRA… CA       
#>  8 01112 09              CALIFORNIA SAN JOSE-SUNNYVALE-SANTA… SANTA C… CA       
#>  9 01112 51              CALIFORNIA NAPA                      NAPA     CA       
#> 10 01112 53              CALIFORNIA VALLEJO                   SOLANO   CA       
#> # ℹ 101 more rows
…
