RVU File Information Tables — link_tables • arkrvu
…
rvu_zip_links(years)

    Arguments

years
<int> RVU source file year

    Value

    <tibble> containing information about RVU source files

    Examples

rvu_link_table()
#> # A tibble: 107 × 3
#>     year file    url                                                            
#>    <int> <chr>   <chr>                                                          
#>  1  2026 RVU26A  https://www.cms.gov/medicare/payment/fee-schedules/physician/p…
#>  2  2025 RVU25A  https://www.cms.gov/medicare/payment/fee-schedules/physician/p…
#>  3  2025 RVU25B  https://www.cms.gov/medicare/payment/fee-schedules/physician/p…
#>  4  2025 RVU25C  https://www.cms.gov/medicare/payment/fee-schedules/physician/p…
#>  5  2025 RVU25D  https://www.cms.gov/medicare/payment/fee-schedules/physician/p…
#>  6  2024 RVU24A  https://www.cms.gov/medicare/payment/fee-schedules/physician/p…
#>  7  2024 RVU24B  https://www.cms.gov/medicare/payment/fee-schedules/physician/p…
#>  8  2024 RVU24AR https://www.cms.gov/medicare/payment/fee-schedules/physician/p…
#>  9  2024 RVU24C  https://www.cms.gov/medicare/payment/fee-schedules/physician/p…
#> 10  2024 RVU24D  https://www.cms.gov/medicare/payment/fee-schedules/physician/p…
#> # ℹ 97 more rows

rvu_zip_links()
#> # A tibble: 40 × 7
#>     year file     date_start date_end   description                   size url  
#>  * <int> <chr>    <date>     <date>     <chr>                        <fs:> <chr>
#>  1  2017 RVU17A   2017-01-01 2017-03-31 Physician Fee Schedule ? Ja…    3M http…
#>  2  2017 RVU17B   2017-04-01 2017-06-30 Post April 2017 update to t…    3M http…
#>  3  2017 RVU17C   2017-07-01 2017-09-30 July 2017 updates for the M…    3M http…
#>  4  2017 RVU17D   2017-10-01 2017-12-31 Posting of October 2017 Med…    NA http…
#>  5  2018 RVU18A   2018-01-01 NA         Physician Fee Schedule ? Ja…    3M http…
#>  6  2018 RVU18AR  NA         NA         The following 2018 MPFS inf…  3.4M http…
#>  7  2018 RVU18AR1 NA         2018-03-31 This update includes the re…    3M http…
#>  8  2018 RVU18B   2018-04-01 2018-06-30 Physician Fee Schedule ? Ap…    NA http…
#>  9  2018 RVU18C1  2018-07-01 2018-09-30 Physician Fee Schedule ? Ju…    3M http…
#> 10  2018 RVU18D   2018-10-01 2018-12-31 Posting of October 2018 Med…    NA http…
#> # ℹ 30 more rows
…
