…
## Usage

``` r
zip_links()
```

## Value

list of selected rvu source files

## Examples

``` r
zip_links()
#> # A tibble: 30 × 7
#>     year file   date_start date_end   description                     size url  
#>  * <int> <chr>  <date>     <date>     <chr>                          <fs:> <chr>
#>  1  2019 RVU19A 2019-01-01 2019-03-31 Physician Fee Schedule - Janu…    3M http…
#>  2  2019 RVU19B 2019-04-01 2019-06-30 Physician Fee Schedule ? Apri…    3M http…
#>  3  2019 RVU19C 2019-07-01 2019-09-30 Physician Fee Schedule ? July…    3M http…
#>  4  2019 RVU19D 2019-10-01 2019-12-31 Physician Fee Schedule - Octo…    3M http…
#>  5  2020 RVU20A 2020-01-01 2020-03-31 Physician Fee Schedule - Janu…    3M http…
#>  6  2020 RVU20B 2020-04-01 2020-06-30 Physician Fee Schedule - Apri…    3M http…
#>  7  2020 RVU20C 2020-07-01 2020-09-30 Physician Fee Schedule - July…    3M http…
#>  8  2020 RVU20D 2020-10-01 2020-12-31 Physician Fee Schedule - Octo…    3M http…
#>  9  2021 RVU21A 2021-01-01 2021-03-31 Physician Fee Schedule - Janu…    3M http…
#> 10  2021 RVU21B 2021-04-01 2021-06-30 Physician Fee Schedule - Apri…    3M http…
#> # ℹ 20 more rows
```
